{
	"groups": [
		{
			"keys": "bg_cloud_png,bg_sphere_png,btn_again_png,btn_start_png,btn_submit_png,label_level_png,num_level_png,score_png,score_number_png,star_png,thing_png",
			"name": "preload"
		}
	],
	"resources": [
		{
			"url": "assets/bg_cloud.png",
			"type": "image",
			"name": "bg_cloud_png"
		},
		{
			"url": "assets/bg_sphere.png",
			"type": "image",
			"name": "bg_sphere_png"
		},
		{
			"url": "assets/btn_again.png",
			"type": "image",
			"name": "btn_again_png"
		},
		{
			"url": "assets/btn_start.png",
			"type": "image",
			"name": "btn_start_png"
		},
		{
			"url": "assets/btn_submit.png",
			"type": "image",
			"name": "btn_submit_png"
		},
		{
			"url": "assets/label_level.png",
			"type": "image",
			"name": "label_level_png"
		},
		{
			"url": "assets/num_level.png",
			"type": "image",
			"name": "num_level_png"
		},
		{
			"url": "assets/score.png",
			"type": "image",
			"name": "score_png"
		},
		{
			"url": "assets/score_number.png",
			"type": "image",
			"name": "score_number_png"
		},
		{
			"url": "assets/star.png",
			"type": "image",
			"name": "star_png"
		},
		{
			"url": "assets/thing.png",
			"type": "image",
			"name": "thing_png"
		}
	]
}